﻿isoFile,zipFilename,access,provenance,title,date,originator,description,language,publisher,subject,collectionTitle,spatialSubject,license,rightsHolder,type,isPartOf,source,replaces,isReplacedBy,isVersionOf,relation,dateIssued,temporalCoverage,rights,schemaVersion,suppressed,references
gford-20140000-010002_lakes-ISO.xml,gford-20140000-010002_lakes.zip,Public,UC Santa Barbara,"Lakes, Maya Forest, Guatemala, 2000",2000,Consejo Nacional de ?reas Protegidas (Guatemala),"Shapefile of the lakes and rivers wide enough to be represented as polygons in the Maya Biosphere Reserve. From the collection ""Settlements and Land Use Intensity in the Prehistoric Maya Forest""",spa,Consejo Nacional de Áreas Protegidas (Guatemala),Maya Forest|Lakes,Maya Forest GIS,Petén (Guatemala : Department)|Guatemala,,,,,,,,,,,,"Please acknowledge Consejo Nacional de Areas Protegidas (CONAP), in any derived data product, reports or publications.",,,download^https://dataverse.ucla.edu/api/v1/access/datafile/:persistentId?persistentId=doi:10.25346/S6/B5LBFD/O7ULJ5
gford-20140000-010004_rivers-ISO.xml,gford-20140000-010004_rivers.zip,Public,UC Santa Barbara,"Rivers, Maya Forest, Guatemala, 2000",2000,Consejo Nacional de ?reas Protegidas (Guatemala),This is a digital map of the rivers in the Maya Biosphere Reserve.,spa,Consejo Nacional de Áreas Protegidas (Guatemala),Maya Forest|Rivers,Maya Forest GIS,Petén (Guatemala : Department)|Guatemala,,,,,,,,,,,,"Please acknowledge Consejo Nacional de Areas Protegidas (CONAP), in any derived data product, reports or publications.",,,download^https://dataverse.ucla.edu/api/v1/access/datafile/:persistentId?persistentId=doi:10.25346/S6/B5LBFD/O7ULJ5
